{
    "compilerOptions": {
        "baseUrl": ".",
        "paths": {
            "assets/*": [
                "./src/assets/*"
            ],
            "common/*": [
                "./src/common/*"
            ],
            "components/*": [
                "./src/components/*"
            ],
            "reduxStore/*": [
                "./src/reduxStore/*"
            ],
            "views/*": [
                "./src/views/*"
            ]
        }
    },
    "exclude": [
        "node_modules",
        "dist"
    ]
}